^G:\CODEVAULT\JSEMINER++\JSEMINER++\STDAFX.CPP
C:\WINDOWS\GLOBALIZATION\SORTING\SORTDEFAULT.NLS
F:\PROGRAMS\VISUAL STUDIO 2017\VC\TOOLS\MSVC\14.11.25503\BIN\HOSTX86\X64\1033\CLUI.DLL
C:\WINDOWS\SYSTEM32\TZRES.DLL
G:\CODEVAULT\JSEMINER++\JSEMINER++\STDAFX.H
G:\CODEVAULT\JSEMINER++\JSEMINER++\TARGETVER.H
C:\PROGRAM FILES (X86)\WINDOWS KITS\10\INCLUDE\10.0.14393.0\SHARED\SDKDDKVER.H
F:\PROGRAMS\VISUAL STUDIO 2017\VC\TOOLS\MSVC\14.11.25503\INCLUDE\IOSTREAM
F:\PROGRAMS\VISUAL STUDIO 2017\VC\TOOLS\MSVC\14.11.25503\INCLUDE\ISTREAM
F:\PROGRAMS\VISUAL STUDIO 2017\VC\TOOLS\MSVC\14.11.25503\INCLUDE\OSTREAM
F:\PROGRAMS\VISUAL STUDIO 2017\VC\TOOLS\MSVC\14.11.25503\INCLUDE\IOS
F:\PROGRAMS\VISUAL STUDIO 2017\VC\TOOLS\MSVC\14.11.25503\INCLUDE\XLOCNUM
F:\PROGRAMS\VISUAL STUDIO 2017\VC\TOOLS\MSVC\14.11.25503\INCLUDE\CLIMITS
F:\PROGRAMS\VISUAL STUDIO 2017\VC\TOOLS\MSVC\14.11.25503\INCLUDE\YVALS.H
F:\PROGRAMS\VISUAL STUDIO 2017\VC\TOOLS\MSVC\14.11.25503\INCLUDE\XKEYCHECK.H
F:\PROGRAMS\VISUAL STUDIO 2017\VC\TOOLS\MSVC\14.11.25503\INCLUDE\CRTDEFS.H
F:\PROGRAMS\VISUAL STUDIO 2017\VC\TOOLS\MSVC\14.11.25503\INCLUDE\VCRUNTIME.H
F:\PROGRAMS\VISUAL STUDIO 2017\VC\TOOLS\MSVC\14.11.25503\INCLUDE\SAL.H
F:\PROGRAMS\VISUAL STUDIO 2017\VC\TOOLS\MSVC\14.11.25503\INCLUDE\CONCURRENCYSAL.H
F:\PROGRAMS\VISUAL STUDIO 2017\VC\TOOLS\MSVC\14.11.25503\INCLUDE\VADEFS.H
C:\PROGRAM FILES (X86)\WINDOWS KITS\10\INCLUDE\10.0.14393.0\UCRT\CORECRT.H
F:\PROGRAMS\VISUAL STUDIO 2017\VC\TOOLS\MSVC\14.11.25503\INCLUDE\USE_ANSI.H
F:\PROGRAMS\VISUAL STUDIO 2017\VC\TOOLS\MSVC\14.11.25503\INCLUDE\LIMITS.H
F:\PROGRAMS\VISUAL STUDIO 2017\VC\TOOLS\MSVC\14.11.25503\INCLUDE\CMATH
F:\PROGRAMS\VISUAL STUDIO 2017\VC\TOOLS\MSVC\14.11.25503\INCLUDE\CSTDLIB
C:\PROGRAM FILES (X86)\WINDOWS KITS\10\INCLUDE\10.0.14393.0\UCRT\STDLIB.H
C:\PROGRAM FILES (X86)\WINDOWS KITS\10\INCLUDE\10.0.14393.0\UCRT\CORECRT_MALLOC.H
C:\PROGRAM FILES (X86)\WINDOWS KITS\10\INCLUDE\10.0.14393.0\UCRT\CORECRT_SEARCH.H
C:\PROGRAM FILES (X86)\WINDOWS KITS\10\INCLUDE\10.0.14393.0\UCRT\STDDEF.H
C:\PROGRAM FILES (X86)\WINDOWS KITS\10\INCLUDE\10.0.14393.0\UCRT\CORECRT_WSTDLIB.H
C:\PROGRAM FILES (X86)\WINDOWS KITS\10\INCLUDE\10.0.14393.0\UCRT\MATH.H
F:\PROGRAMS\VISUAL STUDIO 2017\VC\TOOLS\MSVC\14.11.25503\INCLUDE\XTGMATH.H
F:\PROGRAMS\VISUAL STUDIO 2017\VC\TOOLS\MSVC\14.11.25503\INCLUDE\XTR1COMMON
F:\PROGRAMS\VISUAL STUDIO 2017\VC\TOOLS\MSVC\14.11.25503\INCLUDE\CSTDIO
C:\PROGRAM FILES (X86)\WINDOWS KITS\10\INCLUDE\10.0.14393.0\UCRT\STDIO.H
C:\PROGRAM FILES (X86)\WINDOWS KITS\10\INCLUDE\10.0.14393.0\UCRT\CORECRT_WSTDIO.H
C:\PROGRAM FILES (X86)\WINDOWS KITS\10\INCLUDE\10.0.14393.0\UCRT\CORECRT_STDIO_CONFIG.H
F:\PROGRAMS\VISUAL STUDIO 2017\VC\TOOLS\MSVC\14.11.25503\INCLUDE\STREAMBUF
F:\PROGRAMS\VISUAL STUDIO 2017\VC\TOOLS\MSVC\14.11.25503\INCLUDE\XIOSBASE
F:\PROGRAMS\VISUAL STUDIO 2017\VC\TOOLS\MSVC\14.11.25503\INCLUDE\XLOCALE
F:\PROGRAMS\VISUAL STUDIO 2017\VC\TOOLS\MSVC\14.11.25503\INCLUDE\CSTRING
C:\PROGRAM FILES (X86)\WINDOWS KITS\10\INCLUDE\10.0.14393.0\UCRT\STRING.H
C:\PROGRAM FILES (X86)\WINDOWS KITS\10\INCLUDE\10.0.14393.0\UCRT\CORECRT_MEMORY.H
C:\PROGRAM FILES (X86)\WINDOWS KITS\10\INCLUDE\10.0.14393.0\UCRT\CORECRT_MEMCPY_S.H
C:\PROGRAM FILES (X86)\WINDOWS KITS\10\INCLUDE\10.0.14393.0\UCRT\ERRNO.H
F:\PROGRAMS\VISUAL STUDIO 2017\VC\TOOLS\MSVC\14.11.25503\INCLUDE\VCRUNTIME_STRING.H
C:\PROGRAM FILES (X86)\WINDOWS KITS\10\INCLUDE\10.0.14393.0\UCRT\CORECRT_WSTRING.H
F:\PROGRAMS\VISUAL STUDIO 2017\VC\TOOLS\MSVC\14.11.25503\INCLUDE\STDEXCEPT
F:\PROGRAMS\VISUAL STUDIO 2017\VC\TOOLS\MSVC\14.11.25503\INCLUDE\EXCEPTION
F:\PROGRAMS\VISUAL STUDIO 2017\VC\TOOLS\MSVC\14.11.25503\INCLUDE\TYPE_TRAITS
F:\PROGRAMS\VISUAL STUDIO 2017\VC\TOOLS\MSVC\14.11.25503\INCLUDE\XSTDDEF
F:\PROGRAMS\VISUAL STUDIO 2017\VC\TOOLS\MSVC\14.11.25503\INCLUDE\CSTDDEF
F:\PROGRAMS\VISUAL STUDIO 2017\VC\TOOLS\MSVC\14.11.25503\INCLUDE\INITIALIZER_LIST
C:\PROGRAM FILES (X86)\WINDOWS KITS\10\INCLUDE\10.0.14393.0\UCRT\MALLOC.H
F:\PROGRAMS\VISUAL STUDIO 2017\VC\TOOLS\MSVC\14.11.25503\INCLUDE\VCRUNTIME_EXCEPTION.H
F:\PROGRAMS\VISUAL STUDIO 2017\VC\TOOLS\MSVC\14.11.25503\INCLUDE\EH.H
C:\PROGRAM FILES (X86)\WINDOWS KITS\10\INCLUDE\10.0.14393.0\UCRT\CORECRT_TERMINATE.H
F:\PROGRAMS\VISUAL STUDIO 2017\VC\TOOLS\MSVC\14.11.25503\INCLUDE\XSTRING
F:\PROGRAMS\VISUAL STUDIO 2017\VC\TOOLS\MSVC\14.11.25503\INCLUDE\XMEMORY0
F:\PROGRAMS\VISUAL STUDIO 2017\VC\TOOLS\MSVC\14.11.25503\INCLUDE\CSTDINT
F:\PROGRAMS\VISUAL STUDIO 2017\VC\TOOLS\MSVC\14.11.25503\INCLUDE\STDINT.H
F:\PROGRAMS\VISUAL STUDIO 2017\VC\TOOLS\MSVC\14.11.25503\INCLUDE\LIMITS
F:\PROGRAMS\VISUAL STUDIO 2017\VC\TOOLS\MSVC\14.11.25503\INCLUDE\YMATH.H
F:\PROGRAMS\VISUAL STUDIO 2017\VC\TOOLS\MSVC\14.11.25503\INCLUDE\CFLOAT
C:\PROGRAM FILES (X86)\WINDOWS KITS\10\INCLUDE\10.0.14393.0\UCRT\FLOAT.H
F:\PROGRAMS\VISUAL STUDIO 2017\VC\TOOLS\MSVC\14.11.25503\INCLUDE\CWCHAR
C:\PROGRAM FILES (X86)\WINDOWS KITS\10\INCLUDE\10.0.14393.0\UCRT\WCHAR.H
C:\PROGRAM FILES (X86)\WINDOWS KITS\10\INCLUDE\10.0.14393.0\UCRT\CORECRT_WCONIO.H
C:\PROGRAM FILES (X86)\WINDOWS KITS\10\INCLUDE\10.0.14393.0\UCRT\CORECRT_WCTYPE.H
C:\PROGRAM FILES (X86)\WINDOWS KITS\10\INCLUDE\10.0.14393.0\UCRT\CORECRT_WDIRECT.H
C:\PROGRAM FILES (X86)\WINDOWS KITS\10\INCLUDE\10.0.14393.0\UCRT\CORECRT_WIO.H
C:\PROGRAM FILES (X86)\WINDOWS KITS\10\INCLUDE\10.0.14393.0\UCRT\CORECRT_SHARE.H
C:\PROGRAM FILES (X86)\WINDOWS KITS\10\INCLUDE\10.0.14393.0\UCRT\CORECRT_WPROCESS.H
C:\PROGRAM FILES (X86)\WINDOWS KITS\10\INCLUDE\10.0.14393.0\UCRT\CORECRT_WTIME.H
C:\PROGRAM FILES (X86)\WINDOWS KITS\10\INCLUDE\10.0.14393.0\UCRT\SYS\STAT.H
C:\PROGRAM FILES (X86)\WINDOWS KITS\10\INCLUDE\10.0.14393.0\UCRT\SYS\TYPES.H
F:\PROGRAMS\VISUAL STUDIO 2017\VC\TOOLS\MSVC\14.11.25503\INCLUDE\NEW
F:\PROGRAMS\VISUAL STUDIO 2017\VC\TOOLS\MSVC\14.11.25503\INCLUDE\VCRUNTIME_NEW.H
F:\PROGRAMS\VISUAL STUDIO 2017\VC\TOOLS\MSVC\14.11.25503\INCLUDE\XUTILITY
F:\PROGRAMS\VISUAL STUDIO 2017\VC\TOOLS\MSVC\14.11.25503\INCLUDE\UTILITY
F:\PROGRAMS\VISUAL STUDIO 2017\VC\TOOLS\MSVC\14.11.25503\INCLUDE\IOSFWD
C:\PROGRAM FILES (X86)\WINDOWS KITS\10\INCLUDE\10.0.14393.0\UCRT\CRTDBG.H
F:\PROGRAMS\VISUAL STUDIO 2017\VC\TOOLS\MSVC\14.11.25503\INCLUDE\VCRUNTIME_NEW_DEBUG.H
F:\PROGRAMS\VISUAL STUDIO 2017\VC\TOOLS\MSVC\14.11.25503\INCLUDE\XATOMIC0.H
F:\PROGRAMS\VISUAL STUDIO 2017\VC\TOOLS\MSVC\14.11.25503\INCLUDE\INTRIN0.H
F:\PROGRAMS\VISUAL STUDIO 2017\VC\TOOLS\MSVC\14.11.25503\INCLUDE\TYPEINFO
F:\PROGRAMS\VISUAL STUDIO 2017\VC\TOOLS\MSVC\14.11.25503\INCLUDE\VCRUNTIME_TYPEINFO.H
F:\PROGRAMS\VISUAL STUDIO 2017\VC\TOOLS\MSVC\14.11.25503\INCLUDE\XLOCINFO
F:\PROGRAMS\VISUAL STUDIO 2017\VC\TOOLS\MSVC\14.11.25503\INCLUDE\XLOCINFO.H
C:\PROGRAM FILES (X86)\WINDOWS KITS\10\INCLUDE\10.0.14393.0\UCRT\CTYPE.H
C:\PROGRAM FILES (X86)\WINDOWS KITS\10\INCLUDE\10.0.14393.0\UCRT\LOCALE.H
F:\PROGRAMS\VISUAL STUDIO 2017\VC\TOOLS\MSVC\14.11.25503\INCLUDE\XFACET
F:\PROGRAMS\VISUAL STUDIO 2017\VC\TOOLS\MSVC\14.11.25503\INCLUDE\SYSTEM_ERROR
F:\PROGRAMS\VISUAL STUDIO 2017\VC\TOOLS\MSVC\14.11.25503\INCLUDE\CERRNO
F:\PROGRAMS\VISUAL STUDIO 2017\VC\TOOLS\MSVC\14.11.25503\INCLUDE\XCALL_ONCE.H
C:\PROGRAM FILES (X86)\WINDOWS KITS\10\INCLUDE\10.0.14393.0\UCRT\SHARE.H
^G:\CODEVAULT\JSEMINER++\JSEMINER++\SHA256.CPP
G:\CODEVAULT\JSEMINER++\JSEMINER++\X64\RELEASE\JSEMINER++.PCH
G:\CODEVAULT\JSEMINER++\JSEMINER++\SHA256.H
F:\PROGRAMS\VISUAL STUDIO 2017\VC\TOOLS\MSVC\14.11.25503\INCLUDE\STRING
F:\PROGRAMS\VISUAL STUDIO 2017\VC\TOOLS\MSVC\14.11.25503\INCLUDE\XSTRING_INSERT.H
^G:\CODEVAULT\JSEMINER++\JSEMINER++\MINER.CPP
C:\WINDOWS\GLOBALIZATION\SORTING\SORTDEFAULT.NLS
F:\PROGRAMS\VISUAL STUDIO 2017\VC\TOOLS\MSVC\14.11.25503\BIN\HOSTX86\X64\1033\CLUI.DLL
G:\CODEVAULT\JSEMINER++\JSEMINER++\X64\RELEASE\JSEMINER++.PCH
C:\WINDOWS\SYSTEM32\TZRES.DLL
G:\CODEVAULT\JSEMINER++\JSEMINER++\JSEMINER.H
F:\PROGRAMS\VISUAL STUDIO 2017\VC\TOOLS\MSVC\14.11.25503\INCLUDE\STRING
F:\PROGRAMS\VISUAL STUDIO 2017\VC\TOOLS\MSVC\14.11.25503\INCLUDE\XSTRING_INSERT.H
F:\PROGRAMS\VISUAL STUDIO 2017\VC\TOOLS\MSVC\14.11.25503\INCLUDE\CHRONO
F:\PROGRAMS\VISUAL STUDIO 2017\VC\TOOLS\MSVC\14.11.25503\INCLUDE\RATIO
C:\PROGRAM FILES (X86)\WINDOWS KITS\10\INCLUDE\10.0.14393.0\UCRT\TIME.H
F:\PROGRAMS\VISUAL STUDIO 2017\VC\TOOLS\MSVC\14.11.25503\INCLUDE\THR\XTIMEC.H
F:\PROGRAMS\VISUAL STUDIO 2017\VC\TOOLS\MSVC\14.11.25503\INCLUDE\THR\XTHRCOMMON.H
G:\CODEVAULT\JSEMINER++\JSEMINER++\JSON.HPP
F:\PROGRAMS\VISUAL STUDIO 2017\VC\TOOLS\MSVC\14.11.25503\INCLUDE\ALGORITHM
F:\PROGRAMS\VISUAL STUDIO 2017\VC\TOOLS\MSVC\14.11.25503\INCLUDE\XMEMORY
F:\PROGRAMS\VISUAL STUDIO 2017\VC\TOOLS\MSVC\14.11.25503\INCLUDE\ARRAY
F:\PROGRAMS\VISUAL STUDIO 2017\VC\TOOLS\MSVC\14.11.25503\INCLUDE\ITERATOR
F:\PROGRAMS\VISUAL STUDIO 2017\VC\TOOLS\MSVC\14.11.25503\INCLUDE\TUPLE
F:\PROGRAMS\VISUAL STUDIO 2017\VC\TOOLS\MSVC\14.11.25503\INCLUDE\CASSERT
C:\PROGRAM FILES (X86)\WINDOWS KITS\10\INCLUDE\10.0.14393.0\UCRT\ASSERT.H
F:\PROGRAMS\VISUAL STUDIO 2017\VC\TOOLS\MSVC\14.11.25503\INCLUDE\CISO646
F:\PROGRAMS\VISUAL STUDIO 2017\VC\TOOLS\MSVC\14.11.25503\INCLUDE\ISO646.H
F:\PROGRAMS\VISUAL STUDIO 2017\VC\TOOLS\MSVC\14.11.25503\INCLUDE\CLOCALE
F:\PROGRAMS\VISUAL STUDIO 2017\VC\TOOLS\MSVC\14.11.25503\INCLUDE\FORWARD_LIST
F:\PROGRAMS\VISUAL STUDIO 2017\VC\TOOLS\MSVC\14.11.25503\INCLUDE\FUNCTIONAL
F:\PROGRAMS\VISUAL STUDIO 2017\VC\TOOLS\MSVC\14.11.25503\INCLUDE\XFUNCTIONAL
F:\PROGRAMS\VISUAL STUDIO 2017\VC\TOOLS\MSVC\14.11.25503\INCLUDE\IOMANIP
F:\PROGRAMS\VISUAL STUDIO 2017\VC\TOOLS\MSVC\14.11.25503\INCLUDE\XLOCMON
F:\PROGRAMS\VISUAL STUDIO 2017\VC\TOOLS\MSVC\14.11.25503\INCLUDE\XLOCTIME
F:\PROGRAMS\VISUAL STUDIO 2017\VC\TOOLS\MSVC\14.11.25503\INCLUDE\CTIME
F:\PROGRAMS\VISUAL STUDIO 2017\VC\TOOLS\MSVC\14.11.25503\INCLUDE\LOCALE
F:\PROGRAMS\VISUAL STUDIO 2017\VC\TOOLS\MSVC\14.11.25503\INCLUDE\XLOCBUF
F:\PROGRAMS\VISUAL STUDIO 2017\VC\TOOLS\MSVC\14.11.25503\INCLUDE\XLOCMES
F:\PROGRAMS\VISUAL STUDIO 2017\VC\TOOLS\MSVC\14.11.25503\INCLUDE\MAP
F:\PROGRAMS\VISUAL STUDIO 2017\VC\TOOLS\MSVC\14.11.25503\INCLUDE\XTREE
F:\PROGRAMS\VISUAL STUDIO 2017\VC\TOOLS\MSVC\14.11.25503\INCLUDE\MEMORY
F:\PROGRAMS\VISUAL STUDIO 2017\VC\TOOLS\MSVC\14.11.25503\INCLUDE\NUMERIC
F:\PROGRAMS\VISUAL STUDIO 2017\VC\TOOLS\MSVC\14.11.25503\INCLUDE\SSTREAM
F:\PROGRAMS\VISUAL STUDIO 2017\VC\TOOLS\MSVC\14.11.25503\INCLUDE\VALARRAY
F:\PROGRAMS\VISUAL STUDIO 2017\VC\TOOLS\MSVC\14.11.25503\INCLUDE\VECTOR
G:\CODEVAULT\JSEMINER++\JSEMINER++\SHA256.H
F:\PROGRAMS\VISUAL STUDIO 2017\VC\TOOLS\MSVC\14.11.25503\INCLUDE\FSTREAM
F:\PROGRAMS\CURL-7.55.1\CURL-7.55.1\BUILDS\LIBCURL-VC14-X64-RELEASE-STATIC-IPV6-SSPI-WINSSL\INCLUDE\CURL\CURL.H
F:\PROGRAMS\CURL-7.55.1\CURL-7.55.1\BUILDS\LIBCURL-VC14-X64-RELEASE-STATIC-IPV6-SSPI-WINSSL\INCLUDE\CURL\CURLVER.H
F:\PROGRAMS\CURL-7.55.1\CURL-7.55.1\BUILDS\LIBCURL-VC14-X64-RELEASE-STATIC-IPV6-SSPI-WINSSL\INCLUDE\CURL\SYSTEM.H
C:\PROGRAM FILES (X86)\WINDOWS KITS\10\INCLUDE\10.0.14393.0\UM\WINSOCK2.H
C:\PROGRAM FILES (X86)\WINDOWS KITS\10\INCLUDE\10.0.14393.0\SHARED\WINAPIFAMILY.H
C:\PROGRAM FILES (X86)\WINDOWS KITS\10\INCLUDE\10.0.14393.0\SHARED\WINPACKAGEFAMILY.H
C:\PROGRAM FILES (X86)\WINDOWS KITS\10\INCLUDE\10.0.14393.0\UM\WINDOWS.H
F:\PROGRAMS\VISUAL STUDIO 2017\VC\TOOLS\MSVC\14.11.25503\INCLUDE\EXCPT.H
F:\PROGRAMS\VISUAL STUDIO 2017\VC\TOOLS\MSVC\14.11.25503\INCLUDE\VCRUNTIME.H
F:\PROGRAMS\VISUAL STUDIO 2017\VC\TOOLS\MSVC\14.11.25503\INCLUDE\STDARG.H
C:\PROGRAM FILES (X86)\WINDOWS KITS\10\INCLUDE\10.0.14393.0\SHARED\WINDEF.H
C:\PROGRAM FILES (X86)\WINDOWS KITS\10\INCLUDE\10.0.14393.0\SHARED\MINWINDEF.H
C:\PROGRAM FILES (X86)\WINDOWS KITS\10\INCLUDE\10.0.14393.0\SHARED\SPECSTRINGS.H
C:\PROGRAM FILES (X86)\WINDOWS KITS\10\INCLUDE\10.0.14393.0\SHARED\SPECSTRINGS_STRICT.H
C:\PROGRAM FILES (X86)\WINDOWS KITS\10\INCLUDE\10.0.14393.0\SHARED\SPECSTRINGS_UNDEF.H
C:\PROGRAM FILES (X86)\WINDOWS KITS\10\INCLUDE\10.0.14393.0\SHARED\DRIVERSPECS.H
C:\PROGRAM FILES (X86)\WINDOWS KITS\10\INCLUDE\10.0.14393.0\SHARED\SDV_DRIVERSPECS.H
C:\PROGRAM FILES (X86)\WINDOWS KITS\10\INCLUDE\10.0.14393.0\UM\WINNT.H
C:\PROGRAM FILES (X86)\WINDOWS KITS\10\INCLUDE\10.0.14393.0\SHARED\KERNELSPECS.H
C:\PROGRAM FILES (X86)\WINDOWS KITS\10\INCLUDE\10.0.14393.0\SHARED\BASETSD.H
C:\PROGRAM FILES (X86)\WINDOWS KITS\10\INCLUDE\10.0.14393.0\SHARED\GUIDDEF.H
C:\PROGRAM FILES (X86)\WINDOWS KITS\10\INCLUDE\10.0.14393.0\SHARED\PSHPACK4.H
C:\PROGRAM FILES (X86)\WINDOWS KITS\10\INCLUDE\10.0.14393.0\SHARED\POPPACK.H
C:\PROGRAM FILES (X86)\WINDOWS KITS\10\INCLUDE\10.0.14393.0\SHARED\PSHPACK2.H
C:\PROGRAM FILES (X86)\WINDOWS KITS\10\INCLUDE\10.0.14393.0\SHARED\PSHPACK8.H
C:\PROGRAM FILES (X86)\WINDOWS KITS\10\INCLUDE\10.0.14393.0\SHARED\APISET.H
C:\PROGRAM FILES (X86)\WINDOWS KITS\10\INCLUDE\10.0.14393.0\SHARED\KTMTYPES.H
C:\PROGRAM FILES (X86)\WINDOWS KITS\10\INCLUDE\10.0.14393.0\UM\WINBASE.H
C:\PROGRAM FILES (X86)\WINDOWS KITS\10\INCLUDE\10.0.14393.0\SHARED\APISETCCONV.H
C:\PROGRAM FILES (X86)\WINDOWS KITS\10\INCLUDE\10.0.14393.0\UM\MINWINBASE.H
C:\PROGRAM FILES (X86)\WINDOWS KITS\10\INCLUDE\10.0.14393.0\UM\PROCESSENV.H
C:\PROGRAM FILES (X86)\WINDOWS KITS\10\INCLUDE\10.0.14393.0\UM\FILEAPI.H
C:\PROGRAM FILES (X86)\WINDOWS KITS\10\INCLUDE\10.0.14393.0\UM\DEBUGAPI.H
C:\PROGRAM FILES (X86)\WINDOWS KITS\10\INCLUDE\10.0.14393.0\UM\UTILAPISET.H
C:\PROGRAM FILES (X86)\WINDOWS KITS\10\INCLUDE\10.0.14393.0\UM\HANDLEAPI.H
C:\PROGRAM FILES (X86)\WINDOWS KITS\10\INCLUDE\10.0.14393.0\UM\ERRHANDLINGAPI.H
C:\PROGRAM FILES (X86)\WINDOWS KITS\10\INCLUDE\10.0.14393.0\UM\FIBERSAPI.H
C:\PROGRAM FILES (X86)\WINDOWS KITS\10\INCLUDE\10.0.14393.0\UM\NAMEDPIPEAPI.H
C:\PROGRAM FILES (X86)\WINDOWS KITS\10\INCLUDE\10.0.14393.0\UM\PROFILEAPI.H
C:\PROGRAM FILES (X86)\WINDOWS KITS\10\INCLUDE\10.0.14393.0\UM\HEAPAPI.H
C:\PROGRAM FILES (X86)\WINDOWS KITS\10\INCLUDE\10.0.14393.0\UM\IOAPISET.H
C:\PROGRAM FILES (X86)\WINDOWS KITS\10\INCLUDE\10.0.14393.0\UM\SYNCHAPI.H
C:\PROGRAM FILES (X86)\WINDOWS KITS\10\INCLUDE\10.0.14393.0\UM\INTERLOCKEDAPI.H
C:\PROGRAM FILES (X86)\WINDOWS KITS\10\INCLUDE\10.0.14393.0\UM\PROCESSTHREADSAPI.H
C:\PROGRAM FILES (X86)\WINDOWS KITS\10\INCLUDE\10.0.14393.0\UM\SYSINFOAPI.H
C:\PROGRAM FILES (X86)\WINDOWS KITS\10\INCLUDE\10.0.14393.0\UM\MEMORYAPI.H
C:\PROGRAM FILES (X86)\WINDOWS KITS\10\INCLUDE\10.0.14393.0\UM\ENCLAVEAPI.H
C:\PROGRAM FILES (X86)\WINDOWS KITS\10\INCLUDE\10.0.14393.0\UM\THREADPOOLLEGACYAPISET.H
C:\PROGRAM FILES (X86)\WINDOWS KITS\10\INCLUDE\10.0.14393.0\UM\THREADPOOLAPISET.H
C:\PROGRAM FILES (X86)\WINDOWS KITS\10\INCLUDE\10.0.14393.0\UM\JOBAPI.H
C:\PROGRAM FILES (X86)\WINDOWS KITS\10\INCLUDE\10.0.14393.0\UM\JOBAPI2.H
C:\PROGRAM FILES (X86)\WINDOWS KITS\10\INCLUDE\10.0.14393.0\UM\WOW64APISET.H
C:\PROGRAM FILES (X86)\WINDOWS KITS\10\INCLUDE\10.0.14393.0\UM\LIBLOADERAPI.H
C:\PROGRAM FILES (X86)\WINDOWS KITS\10\INCLUDE\10.0.14393.0\UM\SECURITYBASEAPI.H
C:\PROGRAM FILES (X86)\WINDOWS KITS\10\INCLUDE\10.0.14393.0\UM\NAMESPACEAPI.H
C:\PROGRAM FILES (X86)\WINDOWS KITS\10\INCLUDE\10.0.14393.0\UM\SYSTEMTOPOLOGYAPI.H
C:\PROGRAM FILES (X86)\WINDOWS KITS\10\INCLUDE\10.0.14393.0\UM\PROCESSTOPOLOGYAPI.H
C:\PROGRAM FILES (X86)\WINDOWS KITS\10\INCLUDE\10.0.14393.0\UM\SECURITYAPPCONTAINER.H
C:\PROGRAM FILES (X86)\WINDOWS KITS\10\INCLUDE\10.0.14393.0\UM\REALTIMEAPISET.H
C:\PROGRAM FILES (X86)\WINDOWS KITS\10\INCLUDE\10.0.14393.0\SHARED\WINERROR.H
C:\PROGRAM FILES (X86)\WINDOWS KITS\10\INCLUDE\10.0.14393.0\UM\TIMEZONEAPI.H
C:\PROGRAM FILES (X86)\WINDOWS KITS\10\INCLUDE\10.0.14393.0\UM\WINGDI.H
C:\PROGRAM FILES (X86)\WINDOWS KITS\10\INCLUDE\10.0.14393.0\SHARED\PSHPACK1.H
C:\PROGRAM FILES (X86)\WINDOWS KITS\10\INCLUDE\10.0.14393.0\UM\WINUSER.H
C:\PROGRAM FILES (X86)\WINDOWS KITS\10\INCLUDE\10.0.14393.0\SHARED\TVOUT.H
C:\PROGRAM FILES (X86)\WINDOWS KITS\10\INCLUDE\10.0.14393.0\UM\WINNLS.H
C:\PROGRAM FILES (X86)\WINDOWS KITS\10\INCLUDE\10.0.14393.0\UM\DATETIMEAPI.H
C:\PROGRAM FILES (X86)\WINDOWS KITS\10\INCLUDE\10.0.14393.0\UM\STRINGAPISET.H
C:\PROGRAM FILES (X86)\WINDOWS KITS\10\INCLUDE\10.0.14393.0\UM\WINCON.H
C:\PROGRAM FILES (X86)\WINDOWS KITS\10\INCLUDE\10.0.14393.0\UM\CONSOLEAPI.H
C:\PROGRAM FILES (X86)\WINDOWS KITS\10\INCLUDE\10.0.14393.0\UM\WINVER.H
C:\PROGRAM FILES (X86)\WINDOWS KITS\10\INCLUDE\10.0.14393.0\UM\VERRSRC.H
C:\PROGRAM FILES (X86)\WINDOWS KITS\10\INCLUDE\10.0.14393.0\UM\WINREG.H
C:\PROGRAM FILES (X86)\WINDOWS KITS\10\INCLUDE\10.0.14393.0\UM\REASON.H
C:\PROGRAM FILES (X86)\WINDOWS KITS\10\INCLUDE\10.0.14393.0\UM\WINNETWK.H
C:\PROGRAM FILES (X86)\WINDOWS KITS\10\INCLUDE\10.0.14393.0\SHARED\WNNC.H
C:\PROGRAM FILES (X86)\WINDOWS KITS\10\INCLUDE\10.0.14393.0\SHARED\CDERR.H
C:\PROGRAM FILES (X86)\WINDOWS KITS\10\INCLUDE\10.0.14393.0\UM\DDE.H
C:\PROGRAM FILES (X86)\WINDOWS KITS\10\INCLUDE\10.0.14393.0\UM\DDEML.H
C:\PROGRAM FILES (X86)\WINDOWS KITS\10\INCLUDE\10.0.14393.0\UM\DLGS.H
C:\PROGRAM FILES (X86)\WINDOWS KITS\10\INCLUDE\10.0.14393.0\UM\LZEXPAND.H
C:\PROGRAM FILES (X86)\WINDOWS KITS\10\INCLUDE\10.0.14393.0\UM\MMSYSTEM.H
C:\PROGRAM FILES (X86)\WINDOWS KITS\10\INCLUDE\10.0.14393.0\UM\MMSYSCOM.H
C:\PROGRAM FILES (X86)\WINDOWS KITS\10\INCLUDE\10.0.14393.0\UM\MCIAPI.H
C:\PROGRAM FILES (X86)\WINDOWS KITS\10\INCLUDE\10.0.14393.0\UM\MMISCAPI.H
C:\PROGRAM FILES (X86)\WINDOWS KITS\10\INCLUDE\10.0.14393.0\UM\MMISCAPI2.H
C:\PROGRAM FILES (X86)\WINDOWS KITS\10\INCLUDE\10.0.14393.0\UM\PLAYSOUNDAPI.H
C:\PROGRAM FILES (X86)\WINDOWS KITS\10\INCLUDE\10.0.14393.0\UM\MMEAPI.H
C:\PROGRAM FILES (X86)\WINDOWS KITS\10\INCLUDE\10.0.14393.0\UM\TIMEAPI.H
C:\PROGRAM FILES (X86)\WINDOWS KITS\10\INCLUDE\10.0.14393.0\UM\JOYSTICKAPI.H
C:\PROGRAM FILES (X86)\WINDOWS KITS\10\INCLUDE\10.0.14393.0\UM\NB30.H
C:\PROGRAM FILES (X86)\WINDOWS KITS\10\INCLUDE\10.0.14393.0\SHARED\RPC.H
C:\PROGRAM FILES (X86)\WINDOWS KITS\10\INCLUDE\10.0.14393.0\SHARED\RPCDCE.H
C:\PROGRAM FILES (X86)\WINDOWS KITS\10\INCLUDE\10.0.14393.0\SHARED\RPCDCEP.H
C:\PROGRAM FILES (X86)\WINDOWS KITS\10\INCLUDE\10.0.14393.0\UM\RPCNSI.H
C:\PROGRAM FILES (X86)\WINDOWS KITS\10\INCLUDE\10.0.14393.0\SHARED\RPCNTERR.H
C:\PROGRAM FILES (X86)\WINDOWS KITS\10\INCLUDE\10.0.14393.0\SHARED\RPCASYNC.H
C:\PROGRAM FILES (X86)\WINDOWS KITS\10\INCLUDE\10.0.14393.0\UM\SHELLAPI.H
C:\PROGRAM FILES (X86)\WINDOWS KITS\10\INCLUDE\10.0.14393.0\UM\WINPERF.H
C:\PROGRAM FILES (X86)\WINDOWS KITS\10\INCLUDE\10.0.14393.0\UM\WINSOCK.H
C:\PROGRAM FILES (X86)\WINDOWS KITS\10\INCLUDE\10.0.14393.0\UM\WINCRYPT.H
C:\PROGRAM FILES (X86)\WINDOWS KITS\10\INCLUDE\10.0.14393.0\SHARED\BCRYPT.H
C:\PROGRAM FILES (X86)\WINDOWS KITS\10\INCLUDE\10.0.14393.0\UM\NCRYPT.H
C:\PROGRAM FILES (X86)\WINDOWS KITS\10\INCLUDE\10.0.14393.0\UM\DPAPI.H
C:\PROGRAM FILES (X86)\WINDOWS KITS\10\INCLUDE\10.0.14393.0\UM\WINEFS.H
C:\PROGRAM FILES (X86)\WINDOWS KITS\10\INCLUDE\10.0.14393.0\UM\WINSCARD.H
C:\PROGRAM FILES (X86)\WINDOWS KITS\10\INCLUDE\10.0.14393.0\SHARED\WTYPES.H
C:\PROGRAM FILES (X86)\WINDOWS KITS\10\INCLUDE\10.0.14393.0\SHARED\RPCNDR.H
C:\PROGRAM FILES (X86)\WINDOWS KITS\10\INCLUDE\10.0.14393.0\UM\RPCNSIP.H
C:\PROGRAM FILES (X86)\WINDOWS KITS\10\INCLUDE\10.0.14393.0\SHARED\RPCSAL.H
C:\PROGRAM FILES (X86)\WINDOWS KITS\10\INCLUDE\10.0.14393.0\SHARED\WTYPESBASE.H
C:\PROGRAM FILES (X86)\WINDOWS KITS\10\INCLUDE\10.0.14393.0\UM\WINIOCTL.H
C:\PROGRAM FILES (X86)\WINDOWS KITS\10\INCLUDE\10.0.14393.0\SHARED\WINSMCRD.H
C:\PROGRAM FILES (X86)\WINDOWS KITS\10\INCLUDE\10.0.14393.0\UM\WINSPOOL.H
C:\PROGRAM FILES (X86)\WINDOWS KITS\10\INCLUDE\10.0.14393.0\UM\PRSHT.H
C:\PROGRAM FILES (X86)\WINDOWS KITS\10\INCLUDE\10.0.14393.0\UM\OLE2.H
C:\PROGRAM FILES (X86)\WINDOWS KITS\10\INCLUDE\10.0.14393.0\UM\OBJBASE.H
C:\PROGRAM FILES (X86)\WINDOWS KITS\10\INCLUDE\10.0.14393.0\UM\COMBASEAPI.H
C:\PROGRAM FILES (X86)\WINDOWS KITS\10\INCLUDE\10.0.14393.0\UM\UNKNWNBASE.H
C:\PROGRAM FILES (X86)\WINDOWS KITS\10\INCLUDE\10.0.14393.0\UM\OBJIDLBASE.H
C:\PROGRAM FILES (X86)\WINDOWS KITS\10\INCLUDE\10.0.14393.0\UM\CGUID.H
C:\PROGRAM FILES (X86)\WINDOWS KITS\10\INCLUDE\10.0.14393.0\UM\COML2API.H
C:\PROGRAM FILES (X86)\WINDOWS KITS\10\INCLUDE\10.0.14393.0\UM\OBJIDL.H
C:\PROGRAM FILES (X86)\WINDOWS KITS\10\INCLUDE\10.0.14393.0\UM\UNKNWN.H
C:\PROGRAM FILES (X86)\WINDOWS KITS\10\INCLUDE\10.0.14393.0\UM\PROPIDLBASE.H
C:\PROGRAM FILES (X86)\WINDOWS KITS\10\INCLUDE\10.0.14393.0\UM\OAIDL.H
C:\PROGRAM FILES (X86)\WINDOWS KITS\10\INCLUDE\10.0.14393.0\UM\URLMON.H
C:\PROGRAM FILES (X86)\WINDOWS KITS\10\INCLUDE\10.0.14393.0\UM\OLEIDL.H
C:\PROGRAM FILES (X86)\WINDOWS KITS\10\INCLUDE\10.0.14393.0\UM\SERVPROV.H
C:\PROGRAM FILES (X86)\WINDOWS KITS\10\INCLUDE\10.0.14393.0\UM\MSXML.H
C:\PROGRAM FILES (X86)\WINDOWS KITS\10\INCLUDE\10.0.14393.0\UM\PROPIDL.H
C:\PROGRAM FILES (X86)\WINDOWS KITS\10\INCLUDE\10.0.14393.0\UM\OLEAUTO.H
C:\PROGRAM FILES (X86)\WINDOWS KITS\10\INCLUDE\10.0.14393.0\UM\COMMDLG.H
C:\PROGRAM FILES (X86)\WINDOWS KITS\10\INCLUDE\10.0.14393.0\SHARED\STRALIGN.H
C:\PROGRAM FILES (X86)\WINDOWS KITS\10\INCLUDE\10.0.14393.0\UM\WINSVC.H
C:\PROGRAM FILES (X86)\WINDOWS KITS\10\INCLUDE\10.0.14393.0\UM\MCX.H
C:\PROGRAM FILES (X86)\WINDOWS KITS\10\INCLUDE\10.0.14393.0\UM\IMM.H
C:\PROGRAM FILES (X86)\WINDOWS KITS\10\INCLUDE\10.0.14393.0\UM\IME_CMODES.H
C:\PROGRAM FILES (X86)\WINDOWS KITS\10\INCLUDE\10.0.14393.0\SHARED\WS2DEF.H
C:\PROGRAM FILES (X86)\WINDOWS KITS\10\INCLUDE\10.0.14393.0\SHARED\INADDR.H
C:\PROGRAM FILES (X86)\WINDOWS KITS\10\INCLUDE\10.0.14393.0\SHARED\QOS.H
C:\PROGRAM FILES (X86)\WINDOWS KITS\10\INCLUDE\10.0.14393.0\UM\WS2TCPIP.H
C:\PROGRAM FILES (X86)\WINDOWS KITS\10\INCLUDE\10.0.14393.0\SHARED\WS2IPDEF.H
C:\PROGRAM FILES (X86)\WINDOWS KITS\10\INCLUDE\10.0.14393.0\SHARED\IN6ADDR.H
F:\PROGRAMS\CURL-7.55.1\CURL-7.55.1\BUILDS\LIBCURL-VC14-X64-RELEASE-STATIC-IPV6-SSPI-WINSSL\INCLUDE\CURL\EASY.H
F:\PROGRAMS\CURL-7.55.1\CURL-7.55.1\BUILDS\LIBCURL-VC14-X64-RELEASE-STATIC-IPV6-SSPI-WINSSL\INCLUDE\CURL\MULTI.H
G:\CODEVAULT\JSEMINER++\JSEMINER++\JSEUTILS.H
F:\PROGRAMS\VISUAL STUDIO 2017\VC\TOOLS\MSVC\14.11.25503\INCLUDE\REGEX
F:\PROGRAMS\VISUAL STUDIO 2017\VC\TOOLS\MSVC\14.11.25503\INCLUDE\THREAD
F:\PROGRAMS\VISUAL STUDIO 2017\VC\TOOLS\MSVC\14.11.25503\INCLUDE\THR\XTHREAD
F:\PROGRAMS\VISUAL STUDIO 2017\VC\TOOLS\MSVC\14.11.25503\INCLUDE\THR\XTIME
F:\PROGRAMS\VISUAL STUDIO 2017\VC\TOOLS\MSVC\14.11.25503\INCLUDE\THR\XTHREADS.H
F:\PROGRAMS\VISUAL STUDIO 2017\VC\TOOLS\MSVC\14.11.25503\INCLUDE\RANDOM
^G:\CODEVAULT\JSEMINER++\JSEMINER++\JSEMINER++.CPP
C:\WINDOWS\GLOBALIZATION\SORTING\SORTDEFAULT.NLS
F:\PROGRAMS\VISUAL STUDIO 2017\VC\TOOLS\MSVC\14.11.25503\BIN\HOSTX86\X64\1033\CLUI.DLL
G:\CODEVAULT\JSEMINER++\JSEMINER++\X64\RELEASE\JSEMINER++.PCH
C:\WINDOWS\SYSTEM32\TZRES.DLL
F:\PROGRAMS\VISUAL STUDIO 2017\VC\TOOLS\MSVC\14.11.25503\INCLUDE\CHRONO
F:\PROGRAMS\VISUAL STUDIO 2017\VC\TOOLS\MSVC\14.11.25503\INCLUDE\RATIO
C:\PROGRAM FILES (X86)\WINDOWS KITS\10\INCLUDE\10.0.14393.0\UCRT\TIME.H
F:\PROGRAMS\VISUAL STUDIO 2017\VC\TOOLS\MSVC\14.11.25503\INCLUDE\THR\XTIMEC.H
F:\PROGRAMS\VISUAL STUDIO 2017\VC\TOOLS\MSVC\14.11.25503\INCLUDE\THR\XTHRCOMMON.H
F:\PROGRAMS\VISUAL STUDIO 2017\VC\TOOLS\MSVC\14.11.25503\INCLUDE\STRING
F:\PROGRAMS\VISUAL STUDIO 2017\VC\TOOLS\MSVC\14.11.25503\INCLUDE\XSTRING_INSERT.H
G:\CODEVAULT\JSEMINER++\JSEMINER++\JSEMINER.H
G:\CODEVAULT\JSEMINER++\JSEMINER++\JSON.HPP
F:\PROGRAMS\VISUAL STUDIO 2017\VC\TOOLS\MSVC\14.11.25503\INCLUDE\ALGORITHM
F:\PROGRAMS\VISUAL STUDIO 2017\VC\TOOLS\MSVC\14.11.25503\INCLUDE\XMEMORY
F:\PROGRAMS\VISUAL STUDIO 2017\VC\TOOLS\MSVC\14.11.25503\INCLUDE\ARRAY
F:\PROGRAMS\VISUAL STUDIO 2017\VC\TOOLS\MSVC\14.11.25503\INCLUDE\ITERATOR
F:\PROGRAMS\VISUAL STUDIO 2017\VC\TOOLS\MSVC\14.11.25503\INCLUDE\TUPLE
F:\PROGRAMS\VISUAL STUDIO 2017\VC\TOOLS\MSVC\14.11.25503\INCLUDE\CASSERT
C:\PROGRAM FILES (X86)\WINDOWS KITS\10\INCLUDE\10.0.14393.0\UCRT\ASSERT.H
F:\PROGRAMS\VISUAL STUDIO 2017\VC\TOOLS\MSVC\14.11.25503\INCLUDE\CISO646
F:\PROGRAMS\VISUAL STUDIO 2017\VC\TOOLS\MSVC\14.11.25503\INCLUDE\ISO646.H
F:\PROGRAMS\VISUAL STUDIO 2017\VC\TOOLS\MSVC\14.11.25503\INCLUDE\CLOCALE
F:\PROGRAMS\VISUAL STUDIO 2017\VC\TOOLS\MSVC\14.11.25503\INCLUDE\FORWARD_LIST
F:\PROGRAMS\VISUAL STUDIO 2017\VC\TOOLS\MSVC\14.11.25503\INCLUDE\FUNCTIONAL
F:\PROGRAMS\VISUAL STUDIO 2017\VC\TOOLS\MSVC\14.11.25503\INCLUDE\XFUNCTIONAL
F:\PROGRAMS\VISUAL STUDIO 2017\VC\TOOLS\MSVC\14.11.25503\INCLUDE\IOMANIP
F:\PROGRAMS\VISUAL STUDIO 2017\VC\TOOLS\MSVC\14.11.25503\INCLUDE\XLOCMON
F:\PROGRAMS\VISUAL STUDIO 2017\VC\TOOLS\MSVC\14.11.25503\INCLUDE\XLOCTIME
F:\PROGRAMS\VISUAL STUDIO 2017\VC\TOOLS\MSVC\14.11.25503\INCLUDE\CTIME
F:\PROGRAMS\VISUAL STUDIO 2017\VC\TOOLS\MSVC\14.11.25503\INCLUDE\LOCALE
F:\PROGRAMS\VISUAL STUDIO 2017\VC\TOOLS\MSVC\14.11.25503\INCLUDE\XLOCBUF
F:\PROGRAMS\VISUAL STUDIO 2017\VC\TOOLS\MSVC\14.11.25503\INCLUDE\XLOCMES
F:\PROGRAMS\VISUAL STUDIO 2017\VC\TOOLS\MSVC\14.11.25503\INCLUDE\MAP
F:\PROGRAMS\VISUAL STUDIO 2017\VC\TOOLS\MSVC\14.11.25503\INCLUDE\XTREE
F:\PROGRAMS\VISUAL STUDIO 2017\VC\TOOLS\MSVC\14.11.25503\INCLUDE\MEMORY
F:\PROGRAMS\VISUAL STUDIO 2017\VC\TOOLS\MSVC\14.11.25503\INCLUDE\NUMERIC
F:\PROGRAMS\VISUAL STUDIO 2017\VC\TOOLS\MSVC\14.11.25503\INCLUDE\SSTREAM
F:\PROGRAMS\VISUAL STUDIO 2017\VC\TOOLS\MSVC\14.11.25503\INCLUDE\VALARRAY
F:\PROGRAMS\VISUAL STUDIO 2017\VC\TOOLS\MSVC\14.11.25503\INCLUDE\VECTOR
F:\PROGRAMS\VISUAL STUDIO 2017\VC\TOOLS\MSVC\14.11.25503\INCLUDE\FSTREAM
F:\PROGRAMS\VISUAL STUDIO 2017\VC\TOOLS\MSVC\14.11.25503\INCLUDE\REGEX
C:\PROGRAM FILES (X86)\WINDOWS KITS\10\INCLUDE\10.0.14393.0\UM\WINDOWS.H
C:\PROGRAM FILES (X86)\WINDOWS KITS\10\INCLUDE\10.0.14393.0\SHARED\WINAPIFAMILY.H
C:\PROGRAM FILES (X86)\WINDOWS KITS\10\INCLUDE\10.0.14393.0\SHARED\WINPACKAGEFAMILY.H
F:\PROGRAMS\VISUAL STUDIO 2017\VC\TOOLS\MSVC\14.11.25503\INCLUDE\EXCPT.H
F:\PROGRAMS\VISUAL STUDIO 2017\VC\TOOLS\MSVC\14.11.25503\INCLUDE\VCRUNTIME.H
F:\PROGRAMS\VISUAL STUDIO 2017\VC\TOOLS\MSVC\14.11.25503\INCLUDE\STDARG.H
C:\PROGRAM FILES (X86)\WINDOWS KITS\10\INCLUDE\10.0.14393.0\SHARED\WINDEF.H
C:\PROGRAM FILES (X86)\WINDOWS KITS\10\INCLUDE\10.0.14393.0\SHARED\MINWINDEF.H
C:\PROGRAM FILES (X86)\WINDOWS KITS\10\INCLUDE\10.0.14393.0\SHARED\SPECSTRINGS.H
C:\PROGRAM FILES (X86)\WINDOWS KITS\10\INCLUDE\10.0.14393.0\SHARED\SPECSTRINGS_STRICT.H
C:\PROGRAM FILES (X86)\WINDOWS KITS\10\INCLUDE\10.0.14393.0\SHARED\SPECSTRINGS_UNDEF.H
C:\PROGRAM FILES (X86)\WINDOWS KITS\10\INCLUDE\10.0.14393.0\SHARED\DRIVERSPECS.H
C:\PROGRAM FILES (X86)\WINDOWS KITS\10\INCLUDE\10.0.14393.0\SHARED\SDV_DRIVERSPECS.H
C:\PROGRAM FILES (X86)\WINDOWS KITS\10\INCLUDE\10.0.14393.0\UM\WINNT.H
C:\PROGRAM FILES (X86)\WINDOWS KITS\10\INCLUDE\10.0.14393.0\SHARED\KERNELSPECS.H
C:\PROGRAM FILES (X86)\WINDOWS KITS\10\INCLUDE\10.0.14393.0\SHARED\BASETSD.H
C:\PROGRAM FILES (X86)\WINDOWS KITS\10\INCLUDE\10.0.14393.0\SHARED\GUIDDEF.H
C:\PROGRAM FILES (X86)\WINDOWS KITS\10\INCLUDE\10.0.14393.0\SHARED\PSHPACK4.H
C:\PROGRAM FILES (X86)\WINDOWS KITS\10\INCLUDE\10.0.14393.0\SHARED\POPPACK.H
C:\PROGRAM FILES (X86)\WINDOWS KITS\10\INCLUDE\10.0.14393.0\SHARED\PSHPACK2.H
C:\PROGRAM FILES (X86)\WINDOWS KITS\10\INCLUDE\10.0.14393.0\SHARED\PSHPACK8.H
C:\PROGRAM FILES (X86)\WINDOWS KITS\10\INCLUDE\10.0.14393.0\SHARED\APISET.H
C:\PROGRAM FILES (X86)\WINDOWS KITS\10\INCLUDE\10.0.14393.0\SHARED\KTMTYPES.H
C:\PROGRAM FILES (X86)\WINDOWS KITS\10\INCLUDE\10.0.14393.0\UM\WINBASE.H
C:\PROGRAM FILES (X86)\WINDOWS KITS\10\INCLUDE\10.0.14393.0\SHARED\APISETCCONV.H
C:\PROGRAM FILES (X86)\WINDOWS KITS\10\INCLUDE\10.0.14393.0\UM\MINWINBASE.H
C:\PROGRAM FILES (X86)\WINDOWS KITS\10\INCLUDE\10.0.14393.0\UM\PROCESSENV.H
C:\PROGRAM FILES (X86)\WINDOWS KITS\10\INCLUDE\10.0.14393.0\UM\FILEAPI.H
C:\PROGRAM FILES (X86)\WINDOWS KITS\10\INCLUDE\10.0.14393.0\UM\DEBUGAPI.H
C:\PROGRAM FILES (X86)\WINDOWS KITS\10\INCLUDE\10.0.14393.0\UM\UTILAPISET.H
C:\PROGRAM FILES (X86)\WINDOWS KITS\10\INCLUDE\10.0.14393.0\UM\HANDLEAPI.H
C:\PROGRAM FILES (X86)\WINDOWS KITS\10\INCLUDE\10.0.14393.0\UM\ERRHANDLINGAPI.H
C:\PROGRAM FILES (X86)\WINDOWS KITS\10\INCLUDE\10.0.14393.0\UM\FIBERSAPI.H
C:\PROGRAM FILES (X86)\WINDOWS KITS\10\INCLUDE\10.0.14393.0\UM\NAMEDPIPEAPI.H
C:\PROGRAM FILES (X86)\WINDOWS KITS\10\INCLUDE\10.0.14393.0\UM\PROFILEAPI.H
C:\PROGRAM FILES (X86)\WINDOWS KITS\10\INCLUDE\10.0.14393.0\UM\HEAPAPI.H
C:\PROGRAM FILES (X86)\WINDOWS KITS\10\INCLUDE\10.0.14393.0\UM\IOAPISET.H
C:\PROGRAM FILES (X86)\WINDOWS KITS\10\INCLUDE\10.0.14393.0\UM\SYNCHAPI.H
C:\PROGRAM FILES (X86)\WINDOWS KITS\10\INCLUDE\10.0.14393.0\UM\INTERLOCKEDAPI.H
C:\PROGRAM FILES (X86)\WINDOWS KITS\10\INCLUDE\10.0.14393.0\UM\PROCESSTHREADSAPI.H
C:\PROGRAM FILES (X86)\WINDOWS KITS\10\INCLUDE\10.0.14393.0\UM\SYSINFOAPI.H
C:\PROGRAM FILES (X86)\WINDOWS KITS\10\INCLUDE\10.0.14393.0\UM\MEMORYAPI.H
C:\PROGRAM FILES (X86)\WINDOWS KITS\10\INCLUDE\10.0.14393.0\UM\ENCLAVEAPI.H
C:\PROGRAM FILES (X86)\WINDOWS KITS\10\INCLUDE\10.0.14393.0\UM\THREADPOOLLEGACYAPISET.H
C:\PROGRAM FILES (X86)\WINDOWS KITS\10\INCLUDE\10.0.14393.0\UM\THREADPOOLAPISET.H
C:\PROGRAM FILES (X86)\WINDOWS KITS\10\INCLUDE\10.0.14393.0\UM\JOBAPI.H
C:\PROGRAM FILES (X86)\WINDOWS KITS\10\INCLUDE\10.0.14393.0\UM\JOBAPI2.H
C:\PROGRAM FILES (X86)\WINDOWS KITS\10\INCLUDE\10.0.14393.0\UM\WOW64APISET.H
C:\PROGRAM FILES (X86)\WINDOWS KITS\10\INCLUDE\10.0.14393.0\UM\LIBLOADERAPI.H
C:\PROGRAM FILES (X86)\WINDOWS KITS\10\INCLUDE\10.0.14393.0\UM\SECURITYBASEAPI.H
C:\PROGRAM FILES (X86)\WINDOWS KITS\10\INCLUDE\10.0.14393.0\UM\NAMESPACEAPI.H
C:\PROGRAM FILES (X86)\WINDOWS KITS\10\INCLUDE\10.0.14393.0\UM\SYSTEMTOPOLOGYAPI.H
C:\PROGRAM FILES (X86)\WINDOWS KITS\10\INCLUDE\10.0.14393.0\UM\PROCESSTOPOLOGYAPI.H
C:\PROGRAM FILES (X86)\WINDOWS KITS\10\INCLUDE\10.0.14393.0\UM\SECURITYAPPCONTAINER.H
C:\PROGRAM FILES (X86)\WINDOWS KITS\10\INCLUDE\10.0.14393.0\UM\REALTIMEAPISET.H
C:\PROGRAM FILES (X86)\WINDOWS KITS\10\INCLUDE\10.0.14393.0\SHARED\WINERROR.H
C:\PROGRAM FILES (X86)\WINDOWS KITS\10\INCLUDE\10.0.14393.0\UM\TIMEZONEAPI.H
C:\PROGRAM FILES (X86)\WINDOWS KITS\10\INCLUDE\10.0.14393.0\UM\WINGDI.H
C:\PROGRAM FILES (X86)\WINDOWS KITS\10\INCLUDE\10.0.14393.0\SHARED\PSHPACK1.H
C:\PROGRAM FILES (X86)\WINDOWS KITS\10\INCLUDE\10.0.14393.0\UM\WINUSER.H
C:\PROGRAM FILES (X86)\WINDOWS KITS\10\INCLUDE\10.0.14393.0\SHARED\TVOUT.H
C:\PROGRAM FILES (X86)\WINDOWS KITS\10\INCLUDE\10.0.14393.0\UM\WINNLS.H
C:\PROGRAM FILES (X86)\WINDOWS KITS\10\INCLUDE\10.0.14393.0\UM\DATETIMEAPI.H
C:\PROGRAM FILES (X86)\WINDOWS KITS\10\INCLUDE\10.0.14393.0\UM\STRINGAPISET.H
C:\PROGRAM FILES (X86)\WINDOWS KITS\10\INCLUDE\10.0.14393.0\UM\WINCON.H
C:\PROGRAM FILES (X86)\WINDOWS KITS\10\INCLUDE\10.0.14393.0\UM\CONSOLEAPI.H
C:\PROGRAM FILES (X86)\WINDOWS KITS\10\INCLUDE\10.0.14393.0\UM\WINVER.H
C:\PROGRAM FILES (X86)\WINDOWS KITS\10\INCLUDE\10.0.14393.0\UM\VERRSRC.H
C:\PROGRAM FILES (X86)\WINDOWS KITS\10\INCLUDE\10.0.14393.0\UM\WINREG.H
C:\PROGRAM FILES (X86)\WINDOWS KITS\10\INCLUDE\10.0.14393.0\UM\REASON.H
C:\PROGRAM FILES (X86)\WINDOWS KITS\10\INCLUDE\10.0.14393.0\UM\WINNETWK.H
C:\PROGRAM FILES (X86)\WINDOWS KITS\10\INCLUDE\10.0.14393.0\SHARED\WNNC.H
C:\PROGRAM FILES (X86)\WINDOWS KITS\10\INCLUDE\10.0.14393.0\SHARED\CDERR.H
C:\PROGRAM FILES (X86)\WINDOWS KITS\10\INCLUDE\10.0.14393.0\UM\DDE.H
C:\PROGRAM FILES (X86)\WINDOWS KITS\10\INCLUDE\10.0.14393.0\UM\DDEML.H
C:\PROGRAM FILES (X86)\WINDOWS KITS\10\INCLUDE\10.0.14393.0\UM\DLGS.H
C:\PROGRAM FILES (X86)\WINDOWS KITS\10\INCLUDE\10.0.14393.0\UM\LZEXPAND.H
C:\PROGRAM FILES (X86)\WINDOWS KITS\10\INCLUDE\10.0.14393.0\UM\MMSYSTEM.H
C:\PROGRAM FILES (X86)\WINDOWS KITS\10\INCLUDE\10.0.14393.0\UM\MMSYSCOM.H
C:\PROGRAM FILES (X86)\WINDOWS KITS\10\INCLUDE\10.0.14393.0\UM\MCIAPI.H
C:\PROGRAM FILES (X86)\WINDOWS KITS\10\INCLUDE\10.0.14393.0\UM\MMISCAPI.H
C:\PROGRAM FILES (X86)\WINDOWS KITS\10\INCLUDE\10.0.14393.0\UM\MMISCAPI2.H
C:\PROGRAM FILES (X86)\WINDOWS KITS\10\INCLUDE\10.0.14393.0\UM\PLAYSOUNDAPI.H
C:\PROGRAM FILES (X86)\WINDOWS KITS\10\INCLUDE\10.0.14393.0\UM\MMEAPI.H
C:\PROGRAM FILES (X86)\WINDOWS KITS\10\INCLUDE\10.0.14393.0\UM\TIMEAPI.H
C:\PROGRAM FILES (X86)\WINDOWS KITS\10\INCLUDE\10.0.14393.0\UM\JOYSTICKAPI.H
C:\PROGRAM FILES (X86)\WINDOWS KITS\10\INCLUDE\10.0.14393.0\UM\NB30.H
C:\PROGRAM FILES (X86)\WINDOWS KITS\10\INCLUDE\10.0.14393.0\SHARED\RPC.H
C:\PROGRAM FILES (X86)\WINDOWS KITS\10\INCLUDE\10.0.14393.0\SHARED\RPCDCE.H
C:\PROGRAM FILES (X86)\WINDOWS KITS\10\INCLUDE\10.0.14393.0\SHARED\RPCDCEP.H
C:\PROGRAM FILES (X86)\WINDOWS KITS\10\INCLUDE\10.0.14393.0\UM\RPCNSI.H
C:\PROGRAM FILES (X86)\WINDOWS KITS\10\INCLUDE\10.0.14393.0\SHARED\RPCNTERR.H
C:\PROGRAM FILES (X86)\WINDOWS KITS\10\INCLUDE\10.0.14393.0\SHARED\RPCASYNC.H
C:\PROGRAM FILES (X86)\WINDOWS KITS\10\INCLUDE\10.0.14393.0\UM\SHELLAPI.H
C:\PROGRAM FILES (X86)\WINDOWS KITS\10\INCLUDE\10.0.14393.0\UM\WINPERF.H
C:\PROGRAM FILES (X86)\WINDOWS KITS\10\INCLUDE\10.0.14393.0\UM\WINSOCK.H
C:\PROGRAM FILES (X86)\WINDOWS KITS\10\INCLUDE\10.0.14393.0\SHARED\INADDR.H
C:\PROGRAM FILES (X86)\WINDOWS KITS\10\INCLUDE\10.0.14393.0\UM\WINCRYPT.H
C:\PROGRAM FILES (X86)\WINDOWS KITS\10\INCLUDE\10.0.14393.0\SHARED\BCRYPT.H
C:\PROGRAM FILES (X86)\WINDOWS KITS\10\INCLUDE\10.0.14393.0\UM\NCRYPT.H
C:\PROGRAM FILES (X86)\WINDOWS KITS\10\INCLUDE\10.0.14393.0\UM\DPAPI.H
C:\PROGRAM FILES (X86)\WINDOWS KITS\10\INCLUDE\10.0.14393.0\UM\WINEFS.H
C:\PROGRAM FILES (X86)\WINDOWS KITS\10\INCLUDE\10.0.14393.0\UM\WINSCARD.H
C:\PROGRAM FILES (X86)\WINDOWS KITS\10\INCLUDE\10.0.14393.0\SHARED\WTYPES.H
C:\PROGRAM FILES (X86)\WINDOWS KITS\10\INCLUDE\10.0.14393.0\SHARED\RPCNDR.H
C:\PROGRAM FILES (X86)\WINDOWS KITS\10\INCLUDE\10.0.14393.0\UM\RPCNSIP.H
C:\PROGRAM FILES (X86)\WINDOWS KITS\10\INCLUDE\10.0.14393.0\SHARED\RPCSAL.H
C:\PROGRAM FILES (X86)\WINDOWS KITS\10\INCLUDE\10.0.14393.0\SHARED\WTYPESBASE.H
C:\PROGRAM FILES (X86)\WINDOWS KITS\10\INCLUDE\10.0.14393.0\UM\WINIOCTL.H
C:\PROGRAM FILES (X86)\WINDOWS KITS\10\INCLUDE\10.0.14393.0\SHARED\WINSMCRD.H
C:\PROGRAM FILES (X86)\WINDOWS KITS\10\INCLUDE\10.0.14393.0\UM\WINSPOOL.H
C:\PROGRAM FILES (X86)\WINDOWS KITS\10\INCLUDE\10.0.14393.0\UM\PRSHT.H
C:\PROGRAM FILES (X86)\WINDOWS KITS\10\INCLUDE\10.0.14393.0\UM\OLE2.H
C:\PROGRAM FILES (X86)\WINDOWS KITS\10\INCLUDE\10.0.14393.0\UM\OBJBASE.H
C:\PROGRAM FILES (X86)\WINDOWS KITS\10\INCLUDE\10.0.14393.0\UM\COMBASEAPI.H
C:\PROGRAM FILES (X86)\WINDOWS KITS\10\INCLUDE\10.0.14393.0\UM\UNKNWNBASE.H
C:\PROGRAM FILES (X86)\WINDOWS KITS\10\INCLUDE\10.0.14393.0\UM\OBJIDLBASE.H
C:\PROGRAM FILES (X86)\WINDOWS KITS\10\INCLUDE\10.0.14393.0\UM\CGUID.H
C:\PROGRAM FILES (X86)\WINDOWS KITS\10\INCLUDE\10.0.14393.0\UM\COML2API.H
C:\PROGRAM FILES (X86)\WINDOWS KITS\10\INCLUDE\10.0.14393.0\UM\OBJIDL.H
C:\PROGRAM FILES (X86)\WINDOWS KITS\10\INCLUDE\10.0.14393.0\UM\UNKNWN.H
C:\PROGRAM FILES (X86)\WINDOWS KITS\10\INCLUDE\10.0.14393.0\UM\PROPIDLBASE.H
C:\PROGRAM FILES (X86)\WINDOWS KITS\10\INCLUDE\10.0.14393.0\UM\OAIDL.H
C:\PROGRAM FILES (X86)\WINDOWS KITS\10\INCLUDE\10.0.14393.0\UM\URLMON.H
C:\PROGRAM FILES (X86)\WINDOWS KITS\10\INCLUDE\10.0.14393.0\UM\OLEIDL.H
C:\PROGRAM FILES (X86)\WINDOWS KITS\10\INCLUDE\10.0.14393.0\UM\SERVPROV.H
C:\PROGRAM FILES (X86)\WINDOWS KITS\10\INCLUDE\10.0.14393.0\UM\MSXML.H
C:\PROGRAM FILES (X86)\WINDOWS KITS\10\INCLUDE\10.0.14393.0\UM\PROPIDL.H
C:\PROGRAM FILES (X86)\WINDOWS KITS\10\INCLUDE\10.0.14393.0\UM\OLEAUTO.H
C:\PROGRAM FILES (X86)\WINDOWS KITS\10\INCLUDE\10.0.14393.0\UM\COMMDLG.H
C:\PROGRAM FILES (X86)\WINDOWS KITS\10\INCLUDE\10.0.14393.0\SHARED\STRALIGN.H
C:\PROGRAM FILES (X86)\WINDOWS KITS\10\INCLUDE\10.0.14393.0\UM\WINSVC.H
C:\PROGRAM FILES (X86)\WINDOWS KITS\10\INCLUDE\10.0.14393.0\UM\MCX.H
C:\PROGRAM FILES (X86)\WINDOWS KITS\10\INCLUDE\10.0.14393.0\UM\IMM.H
C:\PROGRAM FILES (X86)\WINDOWS KITS\10\INCLUDE\10.0.14393.0\UM\IME_CMODES.H
F:\PROGRAMS\VISUAL STUDIO 2017\VC\TOOLS\MSVC\14.11.25503\INCLUDE\THREAD
F:\PROGRAMS\VISUAL STUDIO 2017\VC\TOOLS\MSVC\14.11.25503\INCLUDE\THR\XTHREAD
F:\PROGRAMS\VISUAL STUDIO 2017\VC\TOOLS\MSVC\14.11.25503\INCLUDE\THR\XTIME
F:\PROGRAMS\VISUAL STUDIO 2017\VC\TOOLS\MSVC\14.11.25503\INCLUDE\THR\XTHREADS.H
